EESchema Schematic File Version 2
LIBS:power
LIBS:device
LIBS:transistors
LIBS:conn
LIBS:linear
LIBS:regul
LIBS:74xx
LIBS:cmos4000
LIBS:adc-dac
LIBS:memory
LIBS:xilinx
LIBS:microcontrollers
LIBS:dsp
LIBS:microchip
LIBS:analog_switches
LIBS:motorola
LIBS:texas
LIBS:intel
LIBS:audio
LIBS:interface
LIBS:digital-audio
LIBS:philips
LIBS:display
LIBS:cypress
LIBS:siliconi
LIBS:opto
LIBS:atmel
LIBS:contrib
LIBS:valves
LIBS:nosuz
LIBS:humidity_temp_probe-cache
EELAYER 25 0
EELAYER END
$Descr USLetter 11000 8500
encoding utf-8
Sheet 1 1
Title "SHT-31 Board"
Date "2017-05-01"
Rev "5"
Comp "Nutshell Inc"
Comment1 ""
Comment2 ""
Comment3 ""
Comment4 ""
$EndDescr
$Comp
L R SDA_R1
U 1 1 5904EFB9
P 6850 3950
F 0 "SDA_R1" V 6930 3950 50  0000 C CNN
F 1 "10K" V 6850 3950 50  0000 C CNN
F 2 "Resistors_SMD:R_0603_HandSoldering" V 6780 3950 50  0001 C CNN
F 3 "http://www.mouser.com/ds/2/219/RK73H-5715.pdf" H 7500 3350 50  0000 C CNN
F 4 "RK73H1HTTC1002F" V 6850 3950 60  0001 C CNN "manf#"
	1    6850 3950
	1    0    0    -1  
$EndComp
$Comp
L SHT31-DIS SHT31
U 1 1 5904D347
P 5350 4100
F 0 "SHT31" H 5200 4500 60  0000 C CNN
F 1 "SHT31-DIS" H 5650 4500 60  0000 C CNN
F 2 "module:DFN-8_SHT-3x-DIS" H 5500 4100 60  0001 C CNN
F 3 "http://www.mouser.com/ds/2/682/Sensirion_Humidity_Sensors_SHT3x_Datasheet_digital-971521.pdf" H 5350 3350 60  0000 C CNN
F 4 "SHT31-DIS-F2.5kS" H 5350 4100 60  0001 C CNN "manf#"
	1    5350 4100
	1    0    0    -1  
$EndComp
$Comp
L CONN_02X03 Conn1
U 1 1 59051DDA
P 5300 2500
F 0 "Conn1" H 5300 2750 50  0000 C CNN
F 1 "Conn1" H 5300 2250 50  0000 C CNN
F 2 "Pin_Headers:Pin_Header_Angled_2x03_Pitch2.54mm" H 5300 1300 50  0001 C CNN
F 3 "http://www.mouser.com/ds/2/18/bus-12-050-943077.pdf" H 5300 3200 50  0000 C CNN
F 4 "68020-406HLF" H 5300 2500 60  0001 C CNN "manf#"
	1    5300 2500
	1    0    0    -1  
$EndComp
$Comp
L R SCL_R1
U 1 1 5904EF69
P 6300 3800
F 0 "SCL_R1" V 6380 3800 50  0000 C CNN
F 1 "10K" V 6300 3800 50  0000 C CNN
F 2 "Resistors_SMD:R_0603_HandSoldering" V 6230 3800 50  0001 C CNN
F 3 "http://www.mouser.com/ds/2/219/RK73H-5715.pdf" H 7150 3200 50  0000 C CNN
F 4 "RK73H1HTTC1002F" V 6300 3800 60  0001 C CNN "manf#"
	1    6300 3800
	1    0    0    -1  
$EndComp
$Comp
L C VDD_C1
U 1 1 59053415
P 5750 3450
F 0 "VDD_C1" H 5775 3550 50  0000 L CNN
F 1 "100nF" H 5775 3350 50  0000 L CNN
F 2 "Capacitors_SMD:C_0805_HandSoldering" H 5788 3300 50  0001 C CNN
F 3 "http://www.mouser.com/ds/2/40/X7RDielectric-777024.pdf" V 6150 1850 50  0000 C CNN
F 4 "06034C104KAT2A" H 5750 3450 60  0001 C CNN "manf#"
	1    5750 3450
	0    -1   -1   0   
$EndComp
$Comp
L Earth #PWR01
U 1 1 59070FEE
P 5450 4600
F 0 "#PWR01" H 5450 4350 50  0001 C CNN
F 1 "Earth" H 5450 4450 50  0001 C CNN
F 2 "" H 5450 4600 50  0000 C CNN
F 3 "" H 5450 4600 50  0000 C CNN
	1    5450 4600
	1    0    0    -1  
$EndComp
$Comp
L Earth #PWR02
U 1 1 5907100C
P 5900 4300
F 0 "#PWR02" H 5900 4050 50  0001 C CNN
F 1 "Earth" H 5900 4150 50  0001 C CNN
F 2 "" H 5900 4300 50  0000 C CNN
F 3 "" H 5900 4300 50  0000 C CNN
	1    5900 4300
	1    0    0    -1  
$EndComp
$Comp
L Earth #PWR03
U 1 1 59071043
P 4900 4300
F 0 "#PWR03" H 4900 4050 50  0001 C CNN
F 1 "Earth" H 4900 4150 50  0001 C CNN
F 2 "" H 4900 4300 50  0000 C CNN
F 3 "" H 4900 4300 50  0000 C CNN
	1    4900 4300
	1    0    0    -1  
$EndComp
$Comp
L R ADDR_R1
U 1 1 5907107D
P 4050 4150
F 0 "ADDR_R1" V 4130 4150 50  0000 C CNN
F 1 "10K" V 4050 4150 50  0000 C CNN
F 2 "Resistors_SMD:R_0603_HandSoldering" V 3980 4150 50  0001 C CNN
F 3 "http://www.mouser.com/ds/2/219/RK73H-5715.pdf" V 5100 4850 50  0000 C CNN
F 4 "RK73H1HTTC1002F" V 4050 4150 60  0001 C CNN "manf#"
	1    4050 4150
	0    1    1    0   
$EndComp
$Comp
L R RST_R1
U 1 1 5907115C
P 4050 3850
F 0 "RST_R1" V 4130 3850 50  0000 C CNN
F 1 "10K" V 4050 3850 50  0000 C CNN
F 2 "Resistors_SMD:R_0603_HandSoldering" V 3980 3850 50  0001 C CNN
F 3 "http://www.mouser.com/ds/2/219/RK73H-5715.pdf" V 5250 3850 50  0000 C CNN
F 4 "RK73H1HTTC1002F" V 4050 3850 60  0001 C CNN "manf#"
	1    4050 3850
	0    1    1    0   
$EndComp
Wire Wire Line
	4900 3850 4200 3850
Wire Wire Line
	4900 4150 4200 4150
$Comp
L Earth #PWR04
U 1 1 590712FE
P 3850 4350
F 0 "#PWR04" H 3850 4100 50  0001 C CNN
F 1 "Earth" H 3850 4200 50  0001 C CNN
F 2 "" H 3850 4350 50  0000 C CNN
F 3 "" H 3850 4350 50  0000 C CNN
	1    3850 4350
	1    0    0    -1  
$EndComp
Wire Wire Line
	3900 4150 3850 4150
Wire Wire Line
	3850 4150 3850 4350
Wire Wire Line
	3900 3850 3850 3850
Wire Wire Line
	3850 3850 3850 3650
$Comp
L VDD #PWR05
U 1 1 59071364
P 3850 3650
F 0 "#PWR05" H 3850 3500 50  0001 C CNN
F 1 "VDD" H 3850 3800 50  0000 C CNN
F 2 "" H 3850 3650 50  0000 C CNN
F 3 "" H 3850 3650 50  0000 C CNN
	1    3850 3650
	1    0    0    -1  
$EndComp
Wire Wire Line
	5900 4000 6600 4000
Wire Wire Line
	6300 4000 6300 3950
Wire Wire Line
	4600 2600 5050 2600
Connection ~ 5900 3650
Wire Wire Line
	6850 3650 6850 3800
Wire Wire Line
	5900 4150 7050 4150
Wire Wire Line
	6850 4150 6850 4100
Wire Wire Line
	6600 4000 6600 2900
Wire Wire Line
	6600 2900 6000 2900
Wire Wire Line
	6000 2900 6000 2500
Wire Wire Line
	6000 2500 5550 2500
Connection ~ 6300 4000
Wire Wire Line
	7050 4150 7050 2850
Wire Wire Line
	7050 2850 4900 2850
Wire Wire Line
	4900 2850 4900 2400
Wire Wire Line
	4900 2400 5050 2400
Connection ~ 6850 4150
Wire Wire Line
	4900 4000 4800 4000
Wire Wire Line
	4800 4000 4800 2500
Wire Wire Line
	4800 2500 5050 2500
$Comp
L Earth #PWR06
U 1 1 59071B98
P 5600 3450
F 0 "#PWR06" H 5600 3200 50  0001 C CNN
F 1 "Earth" H 5600 3300 50  0001 C CNN
F 2 "" H 5600 3450 50  0000 C CNN
F 3 "" H 5600 3450 50  0000 C CNN
	1    5600 3450
	1    0    0    -1  
$EndComp
Wire Wire Line
	5900 3450 5900 3850
Wire Wire Line
	6300 3650 6300 3500
$Comp
L VDD #PWR07
U 1 1 59071D1E
P 6300 3500
F 0 "#PWR07" H 6300 3350 50  0001 C CNN
F 1 "VDD" H 6300 3650 50  0000 C CNN
F 2 "" H 6300 3500 50  0000 C CNN
F 3 "" H 6300 3500 50  0000 C CNN
	1    6300 3500
	1    0    0    -1  
$EndComp
$Comp
L VDD #PWR08
U 1 1 59071D40
P 6850 3650
F 0 "#PWR08" H 6850 3500 50  0001 C CNN
F 1 "VDD" H 6850 3800 50  0000 C CNN
F 2 "" H 6850 3650 50  0000 C CNN
F 3 "" H 6850 3650 50  0000 C CNN
	1    6850 3650
	1    0    0    -1  
$EndComp
Wire Wire Line
	4700 4150 4700 2200
Wire Wire Line
	4700 2200 5550 2200
Wire Wire Line
	5550 2200 5550 2400
Connection ~ 4700 4150
Wire Wire Line
	5600 2600 5550 2600
Wire Wire Line
	5900 3650 5300 3650
Wire Wire Line
	5300 3650 5300 3550
$Comp
L VDD #PWR09
U 1 1 59072297
P 5300 3550
F 0 "#PWR09" H 5300 3400 50  0001 C CNN
F 1 "VDD" H 5300 3700 50  0000 C CNN
F 2 "" H 5300 3550 50  0000 C CNN
F 3 "" H 5300 3550 50  0000 C CNN
	1    5300 3550
	1    0    0    -1  
$EndComp
$Comp
L VDD #PWR010
U 1 1 590722B9
P 4600 2600
F 0 "#PWR010" H 4600 2450 50  0001 C CNN
F 1 "VDD" H 4600 2750 50  0000 C CNN
F 2 "" H 4600 2600 50  0000 C CNN
F 3 "" H 4600 2600 50  0000 C CNN
	1    4600 2600
	1    0    0    -1  
$EndComp
$Comp
L Earth #PWR011
U 1 1 5907242C
P 5600 2600
F 0 "#PWR011" H 5600 2350 50  0001 C CNN
F 1 "Earth" H 5600 2450 50  0001 C CNN
F 2 "" H 5600 2600 50  0000 C CNN
F 3 "" H 5600 2600 50  0000 C CNN
	1    5600 2600
	1    0    0    -1  
$EndComp
$Comp
L PWR_FLAG #FLG012
U 1 1 5907259E
P 5600 2600
F 0 "#FLG012" H 5600 2695 50  0001 C CNN
F 1 "PWR_FLAG" H 5600 2780 50  0000 C CNN
F 2 "" H 5600 2600 50  0000 C CNN
F 3 "" H 5600 2600 50  0000 C CNN
	1    5600 2600
	0    1    1    0   
$EndComp
$Comp
L PWR_FLAG #FLG013
U 1 1 590725C0
P 4600 2600
F 0 "#FLG013" H 4600 2695 50  0001 C CNN
F 1 "PWR_FLAG" H 4600 2780 50  0000 C CNN
F 2 "" H 4600 2600 50  0000 C CNN
F 3 "" H 4600 2600 50  0000 C CNN
	1    4600 2600
	0    -1   -1   0   
$EndComp
$EndSCHEMATC
